…
  sm <- position_tracker(deposit = 1000000, 
                         ticker = "SM", 
                         start_date = "2020-04-30", 
                         shares = 1300, 
                         buying_price = 746,    
                         industry = "Conglomerate", 
                         listing = "Index", 
                         selling_price = 1050, 
                         selling_date = "2020-12-28")
tictoc::toc()
#> 2.65 sec elapsed

basic.port <- portfolio_tracker(ac, sm)
print(basic.port)
#> # A tibble: 241 x 11
#>    Date       total_deposits total_cash total_position total_ending_po~
#>    <date>              <dbl>      <dbl>          <dbl>            <dbl>
#>  1 2020-01-02        1000000      76000         924000           924000
#>  2 2020-01-03        1000000      76000         924000           931200
#>  3 2020-01-06        1000000      76000         924000           942000
#>  4 2020-01-07        1000000      76000         924000           960000
#>  5 2020-01-08        1000000      76000         924000           948000
#>  6 2020-01-09        1000000      76000         924000           953400
#>  7 2020-01-10        1000000      76000         924000           954000
#>  8 2020-01-14        1000000      76000         924000           953400
#>  9 2020-01-15        1000000      76000         924000           948000
#> 10 2020-01-16        1000000      76000         924000           953400
#> # ... with 231 more rows, and 6 more variables: total_equity <dbl>,
#> #   total_gains <dbl>, daily_gains <dbl>, total_portfolio_return <dbl>,
#> #   total_daily_return <dbl>, drawdown <dbl>
```
…
